>SED101 UT00++ RR01-- ZG0 V3 {SCT30 VUT00}{VSBP0,10,0,1}<
>SED105 SG02++&&CC01++ UT04++&&UT05++&&RR01-- ZG0 V3 {SSH020}{VSBP0,10,0,1}<
>SED123 UT15++&&UT14++ RR01-- ZG0 V3 {SCT31 VUT15}{VSBP0,10,0,1}< 
>SED111 UT07++&&UT06++ RR01-- ZG0 V3 {SSH041}{SCT31 VUT07}{VSBP0,10,0,1}<
>SED117 UT10++ IN07++ ZG0 V2 {SCT20 VUT10*-1}{VSBP0,10,0,1}<
>SED118 UT11++ IN07++ ZG0 V2 {SCT20 VUT11}{VSBP0,10,0,1}<	